QWK,WK,ACC,PER,SPE,MQWKi,MACCi
0.011,0.005,0.343,0.072,0.056,0.011,0.343
0,0.007,0.321,0.077,0.081,0.006,0.332
0,0.004,0.341,0.012,0.011,0.004,0.335
0.008,0.006,0.299,0.11,0.105,0.005,0.326
0,0,0.321,NA,NA,0.004,0.325
0,0.004,0.329,-0.009,-0.012,0.003,0.326
0.008,0.001,0.321,0.046,0.028,0.004,0.325
0.008,0,0.319,0.095,0.075,0.004,0.324
0,0,0.339,NA,NA,0.004,0.326
0.007,0.001,0.307,0.042,0.026,0.004,0.324
0,0,0.313,NA,NA,0.004,0.323
0,0.007,0.325,0.076,0.081,0.004,0.323
0,0,0.333,NA,NA,0.003,0.324
0,0,0.331,NA,NA,0.003,0.324
0.017,0.001,0.337,0.087,0.064,0.004,0.325
0,0.007,0.347,0.074,0.08,0.004,0.327
0.008,0.011,0.299,0.095,0.09,0.004,0.325
0.01,0.004,0.307,0.11,0.096,0.004,0.324
0,0.003,0.315,0.052,0.056,0.004,0.324
0,0,0.327,NA,NA,0.004,0.324
0.029,0.006,0.337,0.136,0.109,0.005,0.324
0,0,0.347,NA,NA,0.005,0.325
0,0,0.329,NA,NA,0.005,0.326
0,0,0.317,NA,NA,0.004,0.325
0.015,0.008,0.325,0.15,0.133,0.005,0.325
0.018,0.008,0.319,0.122,0.103,0.005,0.325
0,0,0.297,NA,NA,0.005,0.324
0,0,0.347,NA,NA,0.005,0.325
0,0.004,0.331,0.015,0.014,0.005,0.325
0.008,0.001,0.313,0.046,0.028,0.005,0.325
0.01,0.004,0.321,0.067,0.054,0.005,0.324
0,0,0.305,NA,NA,0.005,0.324
0.009,0.004,0.315,0.109,0.095,0.005,0.324
0,0,0.301,NA,NA,0.005,0.323
0.006,0.009,0.333,0.062,0.055,0.005,0.323
0.009,0.004,0.325,0.061,0.051,0.005,0.323
0.009,0.008,0.339,0.084,0.075,0.005,0.324
0,0,0.331,-0.035,-0.04,0.005,0.324
0,0,0.291,NA,NA,0.005,0.323
0,0.003,0.321,0.053,0.057,0.005,0.323
0.01,0,0.339,0.095,0.076,0.005,0.323
0.011,0,0.331,0.096,0.076,0.005,0.324
0.01,0.001,0.355,0.097,0.076,0.005,0.324
0,0.008,0.335,0.044,0.046,0.005,0.325
0,0,0.305,NA,NA,0.005,0.324
0,0.003,0.329,0.055,0.058,0.005,0.324
0.008,0.001,0.331,0.046,0.027,0.005,0.324
0.022,0.005,0.323,0.078,0.057,0.005,0.324
0.009,0.008,0.335,0.123,0.113,0.005,0.325
0.009,0.004,0.293,0.066,0.054,0.005,0.324
0,0.003,0.313,0.053,0.057,0.005,0.324
0,0,0.309,NA,NA,0.005,0.323
0,0.003,0.337,0.052,0.056,0.005,0.324
0,0.004,0.303,0.014,0.013,0.005,0.323
0,0.003,0.327,0.054,0.058,0.005,0.323
0.009,0.004,0.335,0.103,0.093,0.005,0.324
0,0,0.307,NA,NA,0.005,0.323
0.008,0.005,0.311,0.045,0.032,0.005,0.323
0,0.007,0.333,0.015,0.014,0.005,0.323
0,0.007,0.323,0.045,0.045,0.005,0.323
0.009,0.011,0.345,0.132,0.126,0.005,0.324
0,0.004,0.327,0.018,0.016,0.005,0.324
0.009,0.004,0.347,0.101,0.092,0.005,0.324
0.007,0.011,0.317,0.079,0.072,0.005,0.324
0.01,0.02,0.349,0.092,0.085,0.005,0.324
0,0,0.353,NA,NA,0.005,0.325
0.009,0.004,0.281,0.071,0.058,0.005,0.324
0,0,0.311,-0.036,-0.041,0.005,0.324
0.009,0,0.327,0.095,0.075,0.005,0.324
0,0,0.311,NA,NA,0.005,0.324
0,0,0.301,NA,NA,0.005,0.323
0.016,0.004,0.291,0.132,0.116,0.005,0.323
0.009,0.004,0.317,0.1,0.091,0.005,0.323
0,0.003,0.299,0.053,0.056,0.005,0.323
0,0,0.319,NA,NA,0.005,0.322
0.011,0.008,0.363,0.122,0.113,0.005,0.323
0,0,0.319,-0.034,-0.039,0.005,0.323
0,0.003,0.305,0.047,0.051,0.005,0.323
0,0,0.317,NA,NA,0.005,0.323
0.009,0.001,0.331,0.051,0.029,0.005,0.323
0,0.001,0.327,-0.05,-0.057,0.005,0.323
0.009,0.008,0.339,0.123,0.113,0.005,0.323
0,0,0.315,NA,NA,0.005,0.323
0.007,0,0.323,0.093,0.075,0.005,0.323
0.019,0.005,0.325,0.085,0.062,0.005,0.323
0,0.003,0.323,0.055,0.058,0.005,0.323
0.013,0.001,0.281,0.09,0.067,0.005,0.322
0.01,0,0.319,0.098,0.076,0.005,0.322
0,0,0.309,-0.032,-0.037,0.005,0.322
0.01,0.007,0.317,0.12,0.111,0.005,0.322
0.008,0.003,0.291,0.096,0.089,0.005,0.322
0.009,0.005,0.327,0.047,0.032,0.005,0.322
0.009,0,0.329,0.094,0.075,0.005,0.322
0.01,0,0.289,0.093,0.075,0.005,0.322
0,0,0.309,NA,NA,0.005,0.322
0.008,0.001,0.341,0.092,0.075,0.005,0.322
0.01,0.001,0.335,0.101,0.077,0.005,0.322
0,0.007,0.329,0.044,0.045,0.005,0.322
0.008,0,0.317,0.093,0.075,0.005,0.322
0,0.003,0.299,0.052,0.056,0.005,0.322
0.016,0.004,0.303,0.14,0.119,0.005,0.321
0,0,0.323,NA,NA,0.005,0.321
0,0,0.279,NA,NA,0.005,0.321
0.009,0,0.305,0.095,0.076,0.005,0.321
-0.004,0.001,0.333,0.015,0.017,0.005,0.321
0,0,0.339,NA,NA,0.005,0.321
0.009,0,0.341,0.096,0.076,0.005,0.321
0.01,0.004,0.347,0.099,0.091,0.005,0.322
0,0.001,0.303,-0.044,-0.05,0.005,0.321
0.009,0,0.317,0.094,0.075,0.005,0.321
0,0.004,0.313,0.008,0.008,0.005,0.321
0.008,0.004,0.335,0.103,0.093,0.005,0.321
0.01,0.004,0.307,0.108,0.094,0.005,0.321
0.009,0,0.329,0.094,0.075,0.005,0.321
0.011,0.007,0.313,0.089,0.078,0.005,0.321
0.009,0.008,0.323,0.085,0.076,0.005,0.321
0.009,0.002,0.337,0.019,0,0.005,0.321
0.008,0,0.341,0.09,0.074,0.005,0.322
0.007,0.001,0.317,0.094,0.074,0.005,0.322
0,0.004,0.323,0.014,0.014,0.005,0.322
0,0,0.335,NA,NA,0.005,0.322
0.007,0.006,0.341,0.061,0.053,0.005,0.322
0.023,0.001,0.325,0.142,0.109,0.005,0.322
0.007,0.003,0.293,0.102,0.092,0.005,0.322
0,0,0.291,NA,NA,0.005,0.321
0,0.003,0.329,0.05,0.054,0.005,0.321
0.009,0,0.303,0.095,0.076,0.005,0.321
0.009,0.004,0.341,0.103,0.093,0.005,0.322
0.01,0,0.333,0.096,0.076,0.005,0.322
0,0.003,0.323,0.056,0.059,0.005,0.322
0.008,0.007,0.313,0.114,0.108,0.005,0.322
0,0,0.325,NA,NA,0.005,0.322
0,0,0.281,NA,NA,0.005,0.321
0,0,0.325,NA,NA,0.005,0.321
0,0,0.319,NA,NA,0.005,0.321
0.01,0.007,0.319,0.086,0.077,0.005,0.321
0,0,0.327,NA,NA,0.005,0.321
0,0.004,0.327,0.013,0.012,0.005,0.321
0.012,0.001,0.327,0.044,0.025,0.005,0.321
0.009,0.004,0.319,0.103,0.093,0.005,0.321
0.011,0.004,0.329,0.069,0.055,0.005,0.321
0.009,0.008,0.321,0.084,0.075,0.005,0.321
0.008,0,0.319,0.094,0.075,0.005,0.321
0,0.004,0.311,-0.007,-0.011,0.005,0.321
0,0.004,0.347,0.05,0.055,0.005,0.321
0,0,0.331,NA,NA,0.005,0.322
0,0.003,0.307,0.051,0.055,0.005,0.321
0,0.004,0.323,-0.007,-0.011,0.005,0.321
0,0,0.299,NA,NA,0.005,0.321
0.01,0.003,0.293,0.107,0.094,0.005,0.321
0.008,0,0.311,0.096,0.075,0.005,0.321
0,0,0.313,NA,NA,0.005,0.321
0.016,0.001,0.333,0.137,0.106,0.005,0.321
0,0.01,0.299,0.04,0.041,0.005,0.321
0.009,0.001,0.353,0.097,0.075,0.005,0.321
0.01,0.001,0.351,0.098,0.076,0.005,0.321
0.01,0.001,0.339,0.099,0.076,0.005,0.321
0,0,0.307,NA,NA,0.005,0.321
0,0.007,0.313,0.075,0.08,0.005,0.321
0,0.003,0.289,0.051,0.055,0.005,0.321
0,0,0.291,NA,NA,0.005,0.321
0.01,0,0.331,0.096,0.076,0.005,0.321
0.009,0,0.333,0.094,0.076,0.005,0.321
0,0.004,0.359,0.052,0.056,0.005,0.321
0,0.006,0.293,0.071,0.076,0.005,0.321
0,0.003,0.309,0.052,0.056,0.005,0.321
0,0.004,0.331,0.016,0.015,0.005,0.321
0.012,0,0.327,0.102,0.077,0.005,0.321
0.007,0.001,0.297,0.023,0.006,0.005,0.321
0,0,0.293,NA,NA,0.005,0.321
0,0.003,0.323,0.051,0.055,0.005,0.321
0.009,0,0.327,0.092,0.074,0.005,0.321
0.01,0,0.331,0.092,0.075,0.005,0.321
0,0.006,0.275,0.025,0.024,0.005,0.321
0,0.01,0.315,0.094,0.1,0.005,0.321
0,0.003,0.317,0.05,0.054,0.005,0.321
0,0,0.303,NA,NA,0.005,0.321
-0.004,0.014,0.325,0.097,0.102,0.005,0.321
0,0.007,0.327,0.039,0.041,0.005,0.321
0.008,0.007,0.329,0.121,0.112,0.005,0.321
0,0,0.307,NA,NA,0.005,0.321
0,0,0.333,NA,NA,0.005,0.321
0.017,0.001,0.307,0.137,0.107,0.005,0.321
0.01,0,0.329,0.096,0.076,0.005,0.321
0.007,0,0.291,0.09,0.074,0.005,0.32
0,0.003,0.327,0.054,0.057,0.005,0.32
0,0,0.345,NA,NA,0.005,0.321
0,0,0.309,NA,NA,0.005,0.321
0,0,0.347,NA,NA,0.005,0.321
0,0.003,0.295,0.053,0.056,0.005,0.321
0.008,0.004,0.331,0.066,0.054,0.005,0.321
0,0.003,0.291,0.012,0.011,0.005,0.32
0.009,0.003,0.293,0.059,0.05,0.005,0.32
0,0.001,0.339,-0.034,-0.039,0.005,0.32
0,0,0.295,NA,NA,0.005,0.32
0.01,0.008,0.319,0.065,0.053,0.005,0.32
0,0,0.315,NA,NA,0.005,0.32
0,0,0.315,NA,NA,0.005,0.32
0,0,0.335,NA,NA,0.005,0.32
0.009,0.004,0.297,0.068,0.056,0.005,0.32
0.018,0.007,0.315,0.148,0.132,0.005,0.32
0,0.003,0.327,0.05,0.054,0.005,0.32
0,0,0.327,NA,NA,0.005,0.32
0.01,0.004,0.325,0.069,0.055,0.005,0.32
0.019,0.012,0.321,0.075,0.058,0.005,0.32
0,0.004,0.333,0.016,0.015,0.005,0.32
0,0,0.297,NA,NA,0.005,0.32
0.01,0.001,0.343,0.097,0.076,0.005,0.32
0.01,0,0.331,0.096,0.076,0.005,0.32
0.007,0.001,0.321,0.043,0.027,0.005,0.32
0.008,0.001,0.339,0.089,0.073,0.005,0.32
0.009,0,0.305,0.095,0.076,0.005,0.32
0.012,0.007,0.341,0.124,0.113,0.005,0.32
0.008,0,0.309,0.09,0.074,0.005,0.32
0.009,0.008,0.331,0.082,0.074,0.005,0.32
0,0,0.309,NA,NA,0.005,0.32
0,0,0.327,NA,NA,0.005,0.32
0,0,0.315,NA,NA,0.005,0.32
0,0,0.323,NA,NA,0.005,0.32
0,0,0.279,NA,NA,0.005,0.32
0.023,0.005,0.359,0.113,0.087,0.005,0.32
0,0.003,0.309,0.052,0.055,0.005,0.32
0,0.003,0.297,0.053,0.056,0.005,0.32
0.009,0.004,0.319,0.105,0.093,0.005,0.32
0.008,0.008,0.331,0.061,0.051,0.005,0.32
0.009,0,0.315,0.093,0.075,0.005,0.32
0,0,0.293,NA,NA,0.005,0.32
0,0,0.345,NA,NA,0.005,0.32
0.009,0.004,0.329,0.105,0.094,0.005,0.32
0.009,0,0.303,0.096,0.076,0.005,0.32
0,0,0.301,NA,NA,0.005,0.32
0.009,0,0.331,0.092,0.075,0.005,0.32
0.01,0,0.309,0.099,0.076,0.005,0.32
0,0.004,0.305,0.016,0.015,0.005,0.32
0,0.007,0.329,0.079,0.083,0.005,0.32
0,0,0.339,NA,NA,0.005,0.32
0.011,0.008,0.351,0.086,0.076,0.005,0.32
0.009,0.004,0.313,0.104,0.093,0.005,0.32
0.011,0.008,0.337,0.09,0.079,0.005,0.32
0,0.003,0.327,0.054,0.057,0.005,0.32
0.01,0.004,0.291,0.065,0.053,0.005,0.32
0.008,0.004,0.297,0.069,0.056,0.005,0.32
0,0.001,0.327,-0.031,-0.036,0.005,0.32
0.009,0.004,0.339,0.099,0.091,0.005,0.32
0,0,0.323,NA,NA,0.005,0.32
0.009,0.001,0.305,0.042,0.026,0.005,0.32
0,0.007,0.327,0.073,0.079,0.005,0.32
0,0,0.309,NA,NA,0.005,0.32
0,0.001,0.283,-0.047,-0.052,0.005,0.32
0,0.001,0.333,-0.033,-0.039,0.005,0.32
0,0,0.305,NA,NA,0.005,0.32
0.008,0.007,0.325,0.113,0.107,0.005,0.32
0,0,0.303,-0.034,-0.038,0.005,0.32
0,0,0.321,-0.034,-0.039,0.005,0.32
0.009,0.001,0.309,0.048,0.029,0.005,0.32
0,0.004,0.329,0.01,0.009,0.005,0.32
0.006,0,0.301,0.089,0.073,0.005,0.32
0,0,0.325,NA,NA,0.005,0.32
0,0.004,0.333,0.014,0.013,0.005,0.32
0,0,0.291,NA,NA,0.005,0.32
0,0,0.313,NA,NA,0.005,0.32
0,0,0.307,NA,NA,0.005,0.32
0.016,0.006,0.353,0.106,0.085,0.005,0.32
0,0.003,0.299,0.052,0.056,0.005,0.32
0,0,0.327,NA,NA,0.005,0.32
0,0,0.315,NA,NA,0.005,0.32
0.008,0,0.317,0.094,0.075,0.005,0.32
0.017,0.008,0.313,0.113,0.099,0.005,0.32
0,0,0.321,NA,NA,0.005,0.32
-0.004,0.008,0.311,0.064,0.07,0.005,0.32
0.01,0.008,0.311,0.062,0.051,0.005,0.32
0,0,0.313,-0.032,-0.036,0.005,0.32
0.018,0.005,0.339,0.102,0.083,0.005,0.32
0.009,0.008,0.327,0.088,0.078,0.005,0.32
0,0,0.315,NA,NA,0.005,0.32
0.01,0,0.311,0.096,0.076,0.005,0.32
0,0,0.313,NA,NA,0.005,0.32
0,0.004,0.309,0.02,0.018,0.005,0.32
0,0.007,0.323,0.043,0.044,0.005,0.32
0,0,0.331,NA,NA,0.005,0.32
0,0.003,0.293,0.049,0.053,0.005,0.32
0.01,0,0.319,0.099,0.076,0.005,0.32
0.009,0.004,0.327,0.106,0.094,0.005,0.32
0.009,0,0.323,0.095,0.076,0.005,0.32
0.009,0,0.333,0.097,0.076,0.005,0.32
0.012,0.004,0.345,0.115,0.098,0.005,0.32
0,0,0.301,NA,NA,0.005,0.32
0,0.003,0.333,0.056,0.059,0.005,0.32
0,0.003,0.319,0.052,0.055,0.005,0.32
0.011,0.004,0.327,0.111,0.096,0.005,0.32
0.009,0.007,0.335,0.113,0.107,0.005,0.32
0.008,0.007,0.303,0.083,0.075,0.005,0.32
0,0,0.319,NA,NA,0.005,0.32
0.007,0,0.299,0.089,0.074,0.005,0.32
0,0,0.321,NA,NA,0.005,0.32
0.009,0,0.321,0.092,0.075,0.005,0.32
0,0.003,0.303,0.052,0.056,0.005,0.32
0.008,0.001,0.307,0.014,-0.001,0.005,0.32
0.022,0.002,0.339,0.068,0.039,0.005,0.32
0.008,0.004,0.315,0.038,0.026,0.005,0.32
0,0,0.331,NA,NA,0.005,0.32
-0.004,-0.002,0.351,-0.016,-0.014,0.005,0.32
0.01,0.004,0.329,0.063,0.052,0.005,0.32
0,0.007,0.317,0.021,0.02,0.005,0.32
0.008,0,0.305,0.095,0.075,0.005,0.32
0,0.007,0.299,0.043,0.044,0.005,0.32
0.003,0.005,0.291,0.04,0.035,0.005,0.32
0,0,0.313,NA,NA,0.005,0.32
0,0.003,0.313,0.054,0.057,0.005,0.32
0,0,0.321,NA,NA,0.005,0.32
0.009,0.001,0.309,0.044,0.027,0.005,0.32
0,0,0.315,NA,NA,0.005,0.32
0,0,0.315,NA,NA,0.005,0.32
0.009,0.004,0.285,0.074,0.059,0.005,0.319
0.009,0.001,0.281,0.045,0.029,0.005,0.319
0.01,0,0.299,0.095,0.076,0.005,0.319
0,0.003,0.319,0.048,0.053,0.005,0.319
0,0.004,0.303,0.012,0.012,0.005,0.319
0.011,0.001,0.359,0.043,0.024,0.005,0.319
0,0,0.299,NA,NA,0.005,0.319
0,0,0.295,NA,NA,0.005,0.319
0.011,0.001,0.341,0.101,0.077,0.005,0.319
0.008,0,0.293,0.096,0.076,0.005,0.319
0.007,0,0.291,0.09,0.074,0.005,0.319
0,0,0.323,NA,NA,0.005,0.319
0.009,0.004,0.321,0.111,0.096,0.005,0.319
0.009,0.004,0.295,0.105,0.093,0.005,0.319
0,0.007,0.337,0.074,0.08,0.005,0.319
0,0.003,0.321,0.054,0.058,0.005,0.319
0,0,0.321,NA,NA,0.005,0.319
0.018,0.001,0.293,0.063,0.039,0.005,0.319
0.011,0.001,0.337,0.103,0.078,0.005,0.319
0.009,0.004,0.321,0.106,0.094,0.005,0.319
0,0,0.307,NA,NA,0.005,0.319
0,0.003,0.293,0.055,0.057,0.005,0.319
0.011,0.004,0.321,0.073,0.057,0.005,0.319
0.01,0.001,0.301,0.045,0.027,0.005,0.319
0,0.004,0.301,-0.008,-0.011,0.005,0.319
0.011,0,0.307,0.097,0.076,0.005,0.319
0.032,0.003,0.357,0.133,0.095,0.005,0.319
0.009,0.007,0.303,0.114,0.107,0.005,0.319
0.009,0.004,0.335,0.069,0.055,0.005,0.319
0.009,0.004,0.335,0.066,0.054,0.005,0.319
0,0,0.325,NA,NA,0.005,0.319
0,0.003,0.297,0.051,0.055,0.005,0.319
0.008,0.001,0.343,0.093,0.075,0.005,0.319
0,0.003,0.301,0.011,0.01,0.005,0.319
0,0,0.305,NA,NA,0.005,0.319
0.011,0.001,0.351,0.096,0.076,0.005,0.319
0,0.003,0.273,0.051,0.054,0.005,0.319
0.01,0,0.329,0.095,0.076,0.005,0.319
0,0.003,0.319,0.051,0.055,0.005,0.319
0,0,0.311,NA,NA,0.005,0.319
0,0,0.325,NA,NA,0.005,0.319
0,0,0.285,NA,NA,0.005,0.319
0.017,0.005,0.311,0.085,0.063,0.005,0.319
0.018,0.004,0.281,0.105,0.085,0.005,0.319
0,0,0.333,NA,NA,0.005,0.319
0,0,0.335,-0.034,-0.04,0.005,0.319
-0.004,0.005,0.321,0.044,0.049,0.005,0.319
0.009,0.007,0.289,0.083,0.074,0.005,0.319
0,0,0.321,NA,NA,0.005,0.319
0,0,0.319,-0.035,-0.04,0.005,0.319
0,0.004,0.315,0.019,0.017,0.005,0.319
0.008,0.003,0.297,0.102,0.092,0.005,0.319
0,0.003,0.319,0.051,0.055,0.005,0.319
0,0,0.315,NA,NA,0.005,0.319
0,0,0.329,NA,NA,0.005,0.319
0.01,0.003,0.291,0.109,0.095,0.005,0.319
0,0,0.317,NA,NA,0.005,0.319
0,0.003,0.305,0.053,0.056,0.005,0.319
0,0,0.335,NA,NA,0.005,0.319
0,0,0.337,NA,NA,0.005,0.319
0.008,0,0.305,0.093,0.075,0.005,0.319
0,0.004,0.311,0.015,0.014,0.005,0.319
0.009,0.001,0.305,0.042,0.026,0.005,0.319
0,0,0.313,NA,NA,0.005,0.319
0.009,0.008,0.365,0.115,0.109,0.005,0.319
0.02,0.001,0.325,0.138,0.108,0.005,0.319
0,0.006,0.303,0.072,0.077,0.005,0.319
0,0.007,0.333,0.078,0.083,0.005,0.319
0,0.003,0.325,0.053,0.057,0.005,0.319
0,0.004,0.301,-0.006,-0.009,0.005,0.319
0,0,0.327,NA,NA,0.005,0.319
0,0,0.301,NA,NA,0.005,0.319
0,0.004,0.333,0.011,0.011,0.005,0.319
0,0.003,0.315,0.05,0.054,0.005,0.319
0,0.003,0.329,0.05,0.055,0.005,0.319
0.01,0.001,0.323,0.044,0.026,0.005,0.319
0.026,0.004,0.299,0.161,0.138,0.005,0.319
0,0,0.301,-0.031,-0.036,0.005,0.319
0,0,0.321,NA,NA,0.005,0.319
0.008,0.004,0.321,0.107,0.094,0.005,0.319
-0.004,0.006,0.335,0.004,0.003,0.005,0.319
0,0.007,0.333,0.072,0.078,0.005,0.319
0.009,0,0.317,0.101,0.077,0.005,0.319
0,0,0.337,-0.035,-0.04,0.005,0.319
0.008,0.004,0.325,0.112,0.097,0.005,0.319
0,0.008,0.327,0.019,0.017,0.005,0.319
0,0,0.295,NA,NA,0.005,0.319
0,0,0.319,NA,NA,0.005,0.319
0,0,0.337,NA,NA,0.005,0.319
0.008,0,0.309,0.091,0.075,0.005,0.319
0,0,0.291,NA,NA,0.005,0.319
0,0,0.339,NA,NA,0.005,0.319
0,0,0.289,NA,NA,0.005,0.319
0.007,0,0.293,0.089,0.074,0.005,0.319
0,0.003,0.301,0.054,0.057,0.005,0.319
0.021,0.005,0.313,0.061,0.039,0.005,0.319
0.01,0.001,0.319,0.042,0.025,0.005,0.319
0.01,0,0.323,0.098,0.076,0.005,0.319
0,0,0.369,NA,NA,0.005,0.319
0.01,0.001,0.345,0.096,0.076,0.005,0.319
0.019,0.001,0.325,0.132,0.106,0.005,0.319
0.013,0,0.331,0.101,0.077,0.005,0.319
0,0.004,0.327,0.018,0.017,0.005,0.319
0,0,0.335,NA,NA,0.005,0.319
0,0.003,0.323,0.051,0.055,0.005,0.319
0.01,0.001,0.317,0.048,0.028,0.005,0.319
0.008,0,0.283,0.09,0.074,0.005,0.319
0,0.003,0.289,0.049,0.053,0.005,0.319
0.008,0.007,0.313,0.087,0.078,0.005,0.319
0.008,0.005,0.327,0.039,0.027,0.005,0.319
0.009,0.004,0.313,0.067,0.055,0.005,0.319
0.01,0.004,0.335,0.108,0.095,0.005,0.319
0,0,0.315,NA,NA,0.005,0.319
0.008,0.004,0.317,0.069,0.057,0.005,0.319
0.009,0.011,0.317,0.08,0.072,0.005,0.319
0,0.004,0.341,0.057,0.06,0.005,0.319
0,0,0.323,-0.033,-0.038,0.005,0.319
0,0,0.333,NA,NA,0.005,0.319
0,0,0.323,NA,NA,0.005,0.319
0.009,0.001,0.301,0.045,0.027,0.005,0.319
0.008,0.004,0.305,0.108,0.095,0.005,0.319
0.009,0,0.303,0.091,0.075,0.005,0.319
0,0,0.319,NA,NA,0.005,0.319
0,0,0.335,NA,NA,0.005,0.319
0,0.004,0.307,0.012,0.012,0.005,0.319
0,0,0.321,NA,NA,0.005,0.319
0,0,0.317,NA,NA,0.005,0.319
0.008,0.001,0.337,0.092,0.074,0.005,0.319
0,0.003,0.303,0.054,0.057,0.005,0.319
0,0.004,0.347,0.054,0.058,0.005,0.319
0,0,0.327,NA,NA,0.005,0.319
0,0,0.335,NA,NA,0.005,0.319
0,0.004,0.333,0.013,0.011,0.005,0.319
0.009,0,0.299,0.092,0.075,0.005,0.319
0.01,0.001,0.333,0.1,0.076,0.005,0.319
0,0,0.313,NA,NA,0.005,0.319
0.011,0.02,0.325,0.112,0.11,0.005,0.319
0.01,0.008,0.313,0.062,0.052,0.005,0.319
0,0,0.333,NA,NA,0.005,0.319
0.01,0.006,0.287,0.121,0.111,0.005,0.319
0,0,0.297,NA,NA,0.005,0.319
0.008,0.001,0.327,0.094,0.075,0.005,0.319
0.019,0.001,0.309,0.058,0.036,0.005,0.319
0.005,0.012,0.317,0.09,0.087,0.005,0.319
0.008,0.005,0.323,0.069,0.056,0.005,0.319
0,0,0.357,NA,NA,0.005,0.319
0,0.003,0.333,0.054,0.058,0.005,0.319
0,0.003,0.321,0.052,0.056,0.005,0.319
0.022,0.004,0.299,0.107,0.085,0.005,0.319
0,0.007,0.321,0.04,0.041,0.005,0.319
0.01,0.005,0.325,0.025,0.01,0.005,0.319
0.008,0.004,0.317,0.1,0.091,0.005,0.319
0,0,0.349,NA,NA,0.005,0.319
0,0,0.297,NA,NA,0.005,0.319
0,0.004,0.337,0.059,0.061,0.005,0.319
0.01,0.004,0.333,0.07,0.056,0.005,0.319
0,0,0.333,NA,NA,0.005,0.319
0,0.003,0.275,0.012,0.012,0.005,0.319
0.008,0.004,0.311,0.104,0.093,0.005,0.319
0,0,0.279,NA,NA,0.005,0.319
0.009,0.003,0.291,0.103,0.092,0.005,0.319
0.007,0.01,0.307,0.125,0.121,0.005,0.319
0,0.001,0.303,-0.05,-0.056,0.005,0.319
0,0,0.309,-0.033,-0.038,0.005,0.319
-0.004,0.008,0.319,0.044,0.047,0.005,0.319
0.007,0,0.307,0.087,0.073,0.005,0.319
0.009,0.004,0.323,0.064,0.052,0.005,0.319
0,0,0.289,-0.032,-0.036,0.005,0.319
0.009,0.004,0.323,0.102,0.092,0.005,0.319
0.01,0.001,0.335,0.097,0.076,0.005,0.319
0,0,0.313,NA,NA,0.005,0.319
0,0,0.339,-0.034,-0.039,0.005,0.319
0.008,0.004,0.335,0.104,0.093,0.005,0.319
0,0,0.331,NA,NA,0.005,0.319
0,0,0.343,NA,NA,0.005,0.319
0,0,0.301,NA,NA,0.005,0.319
0,0,0.273,NA,NA,0.005,0.319
0,0,0.337,NA,NA,0.005,0.319
0,0.003,0.289,0.051,0.054,0.005,0.319
0.009,0.003,0.293,0.108,0.095,0.005,0.319
0,0.003,0.325,0.053,0.056,0.005,0.319
0.009,0.001,0.347,0.096,0.076,0.005,0.319
0,0,0.305,-0.033,-0.037,0.005,0.319
0.009,0.007,0.313,0.084,0.076,0.005,0.319
0.009,0.004,0.307,0.107,0.094,0.005,0.319
0,0.007,0.319,0.076,0.08,0.005,0.319
0.008,0.001,0.303,0.045,0.028,0.005,0.318
0,0,0.367,NA,NA,0.005,0.319
0.008,0,0.311,0.094,0.075,0.005,0.319
0.008,0.004,0.311,0.103,0.093,0.005,0.319
0.008,0.004,0.309,0.106,0.094,0.005,0.319
-0.004,0.004,0.323,0.062,0.07,0.005,0.319
0,0.004,0.343,0.013,0.012,0.005,0.319
0,0.004,0.347,0.054,0.058,0.005,0.319
0,0.003,0.299,0.049,0.053,0.005,0.319
0,0.006,0.317,-0.043,-0.052,0.005,0.319
0.008,0.008,0.321,0.057,0.049,0.005,0.319
0,0.003,0.325,0.052,0.056,0.005,0.319
0.01,0,0.323,0.095,0.075,0.005,0.319
0,0,0.323,NA,NA,0.005,0.319
0,0.004,0.345,0.052,0.056,0.005,0.319
0.01,0,0.299,0.096,0.077,0.005,0.319
0.008,0.003,0.301,0.101,0.091,0.005,0.319
0.009,0.001,0.343,0.047,0.028,0.005,0.319
0.011,0.007,0.317,0.087,0.076,0.005,0.319
0.008,0.004,0.347,0.107,0.095,0.005,0.319
0.008,0.001,0.313,0.04,0.025,0.005,0.319
0.01,0.001,0.337,0.096,0.076,0.005,0.319
0,0.004,0.363,0.053,0.057,0.005,0.319
0.009,0.007,0.321,0.114,0.108,0.005,0.319
0,0.007,0.299,0.024,0.022,0.005,0.319
0,0,0.313,NA,NA,0.005,0.319
0.009,0.004,0.321,0.105,0.093,0.005,0.319
0,0,0.307,NA,NA,0.005,0.319
0,0,0.323,NA,NA,0.005,0.319
0,0.003,0.313,0.055,0.058,0.005,0.319
0.01,0,0.325,0.094,0.075,0.005,0.319
0.005,0.006,0.337,0.06,0.053,0.005,0.319
0,0.003,0.331,0.051,0.056,0.005,0.319
0.008,0.007,0.283,0.084,0.076,0.005,0.319
0.009,0,0.319,0.096,0.076,0.005,0.319
0,0.003,0.297,0.017,0.016,0.005,0.319
0.01,0.005,0.351,0.067,0.054,0.005,0.319
0,0.012,0.343,0.025,0.024,0.005,0.319
0,0,0.329,-0.033,-0.038,0.005,0.319
-0.004,0.008,0.323,0.044,0.046,0.005,0.319
0,0.003,0.321,0.053,0.057,0.005,0.319
0,0,0.327,NA,NA,0.005,0.319
0.008,0,0.315,0.091,0.075,0.005,0.319
0,0.003,0.315,0.05,0.054,0.005,0.319
0.009,0,0.333,0.092,0.075,0.005,0.319
0,0,0.305,NA,NA,0.005,0.319
0.008,0.001,0.317,0.041,0.025,0.005,0.319
0.008,0.004,0.295,0.103,0.092,0.005,0.319
0,0.003,0.289,0.05,0.054,0.005,0.319
0,0.004,0.319,0.01,0.01,0.005,0.319
0.009,0.004,0.333,0.098,0.09,0.005,0.319
0.008,0,0.295,0.091,0.075,0.005,0.319
0.009,0,0.317,0.094,0.076,0.005,0.319
0,0,0.305,NA,NA,0.005,0.319
0,0,0.325,NA,NA,0.005,0.319
0,0.004,0.327,0.017,0.016,0.005,0.319
0.008,0.007,0.315,0.084,0.076,0.005,0.319
0.011,0,0.339,0.098,0.076,0.005,0.319
0,0,0.321,NA,NA,0.005,0.319
0,0,0.307,NA,NA,0.005,0.319
0.008,0.004,0.299,0.105,0.094,0.005,0.319
0,0,0.309,-0.033,-0.037,0.005,0.319
0,0.004,0.351,0.059,0.061,0.005,0.319
0,0,0.311,NA,NA,0.005,0.319
0,0.003,0.311,0.052,0.056,0.005,0.319
0,0.001,0.337,-0.031,-0.036,0.005,0.319
0.01,0.008,0.337,0.088,0.077,0.005,0.319
0,0.004,0.323,-0.013,-0.017,0.005,0.319
0,0,0.285,NA,NA,0.005,0.319
0,0.009,0.291,0.089,0.095,0.005,0.319
0,0,0.317,NA,NA,0.005,0.319
0.008,0.001,0.297,0.044,0.028,0.005,0.319
0,0.004,0.329,0.013,0.012,0.005,0.319
0,0,0.321,NA,NA,0.005,0.319
0,0,0.325,NA,NA,0.005,0.319
0,0,0.309,NA,NA,0.005,0.319
0.009,0.001,0.315,0.042,0.026,0.005,0.319
0,0.004,0.321,-0.008,-0.011,0.005,0.319
0,0.006,0.293,0.08,0.083,0.005,0.319
0,0,0.311,NA,NA,0.005,0.319
0,0.003,0.319,0.053,0.057,0.005,0.319
0.018,0.001,0.309,0.135,0.107,0.005,0.319
0.009,0,0.319,0.094,0.075,0.005,0.319
0,0.003,0.311,0.052,0.056,0.005,0.319
0,0,0.327,NA,NA,0.005,0.319
0.009,0,0.317,0.094,0.076,0.005,0.319
0,0.001,0.339,-0.034,-0.039,0.005,0.319
0,0,0.319,NA,NA,0.005,0.319
0.012,0,0.339,0.096,0.076,0.005,0.319
0,0.003,0.317,0.05,0.054,0.005,0.319
0,0.003,0.299,0.051,0.055,0.005,0.319
0,0.004,0.337,0.051,0.056,0.005,0.319
0,0.005,0.341,-0.01,-0.013,0.005,0.319
0.009,0.004,0.299,0.105,0.093,0.005,0.319
0.019,0.001,0.325,0.14,0.108,0.005,0.319
0.007,0.004,0.319,0.105,0.094,0.005,0.319
0.009,0.001,0.351,0.092,0.074,0.005,0.319
-0.004,0.002,0.315,0.001,0.001,0.005,0.319
0,0,0.291,NA,NA,0.005,0.319
0.009,0.004,0.317,0.105,0.093,0.005,0.319
0,0.007,0.311,0.036,0.038,0.005,0.319
0.009,0.004,0.305,0.101,0.091,0.005,0.319
-0.005,0.001,0.297,-0.005,-0.004,0.005,0.319
0.009,0.007,0.315,0.117,0.109,0.005,0.319
0,0,0.323,NA,NA,0.005,0.319
0,0.007,0.309,0.04,0.042,0.005,0.319
0,0.004,0.345,0.051,0.055,0.005,0.319
0.009,0.004,0.307,0.071,0.058,0.005,0.319
0,0,0.309,NA,NA,0.005,0.319
0,0.003,0.301,0.053,0.056,0.004,0.319
0,0.003,0.303,0.013,0.013,0.004,0.319
0,0.004,0.307,0.016,0.015,0.004,0.319
0.008,0.004,0.313,0.1,0.091,0.004,0.319
-0.004,0.005,0.309,0.012,0.012,0.004,0.319
0,0,0.285,-0.029,-0.032,0.004,0.318
0,0.003,0.323,0.055,0.058,0.004,0.318
0.011,0.007,0.305,0.087,0.077,0.004,0.318
0,0,0.309,NA,NA,0.004,0.318
0,0.004,0.341,0.011,0.011,0.004,0.318
0,0.008,0.355,0.045,0.045,0.004,0.319
0,0.004,0.325,-0.01,-0.014,0.004,0.319
0,0,0.331,NA,NA,0.004,0.319
0.01,0.002,0.325,0.021,0.001,0.004,0.319
0,0.003,0.289,0.015,0.014,0.004,0.319
0,0,0.295,NA,NA,0.004,0.318
0,0.004,0.345,0.053,0.057,0.004,0.319
0.012,-0.001,0.315,0.064,0.045,0.004,0.319
0,0.007,0.329,0.075,0.08,0.004,0.319
0.009,0.003,0.301,0.102,0.092,0.004,0.318
0.01,0.003,0.297,0.106,0.094,0.004,0.318
0,0.003,0.295,0.051,0.055,0.004,0.318
0,0.003,0.319,0.054,0.057,0.004,0.318
0.008,0,0.295,0.095,0.076,0.004,0.318
0.012,0.008,0.339,0.094,0.081,0.004,0.318
0,0.003,0.297,0.049,0.053,0.004,0.318
0,0,0.293,NA,NA,0.004,0.318
0.011,0,0.325,0.095,0.076,0.004,0.318
0.008,0.004,0.309,0.063,0.053,0.004,0.318
0,0.003,0.325,0.051,0.055,0.004,0.318
0.009,0,0.331,0.098,0.076,0.004,0.318
0,0.003,0.313,0.053,0.056,0.004,0.318
0,0,0.321,NA,NA,0.004,0.318
0,0,0.343,NA,NA,0.004,0.318
0,0.004,0.335,0.017,0.015,0.004,0.318
0.008,0,0.309,0.092,0.075,0.004,0.318
0.009,0,0.291,0.094,0.076,0.004,0.318
0.008,0.001,0.305,0.042,0.026,0.004,0.318
0,0.003,0.299,0.053,0.056,0.004,0.318
0,0.004,0.309,0.015,0.014,0.004,0.318
0,0,0.323,NA,NA,0.004,0.318
0,0.004,0.327,0.017,0.016,0.004,0.318
0.009,0.006,0.329,0.008,-0.008,0.004,0.318
0,0.003,0.313,0.05,0.054,0.004,0.318
0.022,0.005,0.353,0.108,0.085,0.004,0.318
0,0,0.311,NA,NA,0.004,0.318
0,0.003,0.293,0.053,0.056,0.004,0.318
0,0.003,0.315,0.053,0.057,0.004,0.318
0,0.007,0.319,0.067,0.073,0.004,0.318
0,0,0.299,NA,NA,0.004,0.318
0,0.004,0.329,0.016,0.015,0.004,0.318
0.009,0.004,0.321,0.107,0.094,0.004,0.318
0.008,0.008,0.313,0.037,0.027,0.004,0.318
0,0,0.329,NA,NA,0.004,0.318
0.01,0.007,0.297,0.116,0.108,0.004,0.318
0,0,0.291,NA,NA,0.004,0.318
0,0,0.311,NA,NA,0.004,0.318
0.009,0.004,0.331,0.112,0.097,0.004,0.318
0.009,0.004,0.327,0.062,0.051,0.004,0.318
0,0,0.331,-0.035,-0.04,0.004,0.318
0.009,0.004,0.321,0.098,0.09,0.004,0.318
0,0,0.301,NA,NA,0.004,0.318
0.009,0.001,0.339,0.048,0.028,0.004,0.318
0.008,0.001,0.303,0.044,0.028,0.004,0.318
0.008,0.011,0.315,0.073,0.067,0.004,0.318
0,0.003,0.339,0.047,0.052,0.004,0.318
0,0,0.335,NA,NA,0.004,0.318
0.009,0.001,0.311,0.042,0.025,0.004,0.318
0,0,0.291,-0.032,-0.036,0.004,0.318
0.009,0.004,0.333,0.105,0.093,0.004,0.318
0,0,0.305,NA,NA,0.004,0.318
0.021,0.005,0.345,0.142,0.12,0.004,0.318
0,0,0.305,NA,NA,0.004,0.318
0.01,0.001,0.327,0.043,0.025,0.004,0.318
0.021,0.004,0.309,0.143,0.121,0.004,0.318
0,0,0.305,NA,NA,0.004,0.318
0.009,0,0.295,0.094,0.075,0.004,0.318
0.01,0,0.309,0.097,0.076,0.004,0.318
0,0,0.295,NA,NA,0.004,0.318
0.008,0,0.307,0.092,0.075,0.004,0.318
0.018,0.008,0.329,0.115,0.1,0.004,0.318
-0.004,0.002,0.339,0.028,0.031,0.004,0.318
0,0,0.339,NA,NA,0.004,0.318
0.01,0.004,0.329,0.102,0.092,0.004,0.318
0,0.004,0.343,0.052,0.056,0.004,0.318
0,0.003,0.281,0.016,0.015,0.004,0.318
0.01,0.004,0.313,0.111,0.096,0.004,0.318
0,0.003,0.297,0.012,0.011,0.004,0.318
0.009,0.004,0.317,0.104,0.093,0.004,0.318
0,0,0.319,NA,NA,0.004,0.318
0.019,0.004,0.313,0.108,0.086,0.004,0.318
0,0.004,0.349,0.053,0.058,0.004,0.318
0,0,0.315,NA,NA,0.004,0.318
0,0,0.323,NA,NA,0.004,0.318
0.018,0.008,0.333,0.115,0.1,0.004,0.318
0.008,0.001,0.325,0.044,0.027,0.004,0.318
0.008,0.004,0.309,0.102,0.092,0.004,0.318
0,0,0.311,-0.036,-0.041,0.004,0.318
0,0,0.305,NA,NA,0.004,0.318
0.008,0,0.325,0.092,0.075,0.004,0.318
0.01,0,0.325,0.097,0.076,0.004,0.318
0,0.003,0.291,0.053,0.056,0.004,0.318
0.009,0,0.321,0.092,0.075,0.004,0.318
0.012,0.007,0.315,0.126,0.114,0.005,0.318
0.009,0,0.311,0.096,0.076,0.005,0.318
0,0,0.301,NA,NA,0.005,0.318
0,0,0.295,-0.035,-0.039,0.005,0.318
0.01,0.001,0.339,0.096,0.076,0.005,0.318
0.009,0,0.303,0.097,0.076,0.005,0.318
0.008,0.004,0.307,0.11,0.096,0.005,0.318
0,0.003,0.331,0.052,0.056,0.005,0.318
0.009,0,0.327,0.093,0.075,0.005,0.318
0,0,0.315,NA,NA,0.005,0.318
0,0.008,0.325,0.022,0.02,0.005,0.318
0,0,0.327,-0.035,-0.04,0.005,0.318
0,0,0.301,NA,NA,0.004,0.318
-0.005,0.006,0.317,-0.024,-0.028,0.004,0.318
0.009,0.001,0.305,0.044,0.027,0.004,0.318
0.008,0,0.303,0.092,0.075,0.004,0.318
0,0,0.303,NA,NA,0.004,0.318
0,0,0.283,NA,NA,0.004,0.318
0,0,0.315,NA,NA,0.004,0.318
0,0.003,0.319,0.055,0.058,0.004,0.318
0.009,0,0.323,0.093,0.075,0.004,0.318
0.008,0,0.337,0.091,0.074,0.004,0.318
0.009,0.008,0.341,0.082,0.074,0.004,0.318
0.01,0,0.325,0.103,0.077,0.004,0.318
0.017,0.004,0.323,0.143,0.121,0.005,0.318
0,0.003,0.311,0.049,0.053,0.005,0.318
0.009,0.007,0.305,0.08,0.073,0.005,0.318
0,0.003,0.339,0.051,0.055,0.005,0.318
0,0.003,0.321,0.055,0.058,0.004,0.318
0,0,0.305,NA,NA,0.004,0.318
0,0,0.309,NA,NA,0.004,0.318
0,0,0.301,NA,NA,0.004,0.318
0.018,0.001,0.299,0.092,0.066,0.004,0.318
0.01,0.011,0.335,0.104,0.096,0.005,0.318
0,0,0.309,NA,NA,0.004,0.318
0.008,0.007,0.297,0.084,0.076,0.005,0.318
0,0,0.313,NA,NA,0.004,0.318
0,0.007,0.341,0.073,0.079,0.004,0.318
0,0.004,0.319,0.014,0.013,0.004,0.318
0,0,0.265,NA,NA,0.004,0.318
0,0,0.297,NA,NA,0.004,0.318
0.008,0,0.325,0.093,0.075,0.004,0.318
0.02,0.005,0.335,0.077,0.056,0.004,0.318
0.008,0.004,0.317,0.102,0.092,0.005,0.318
0,0.003,0.323,0.055,0.058,0.004,0.318
0,0,0.311,NA,NA,0.004,0.318
0.008,0,0.273,0.093,0.075,0.004,0.318
-0.004,0.001,0.339,0.049,0.056,0.004,0.318
0.01,0,0.321,0.096,0.076,0.004,0.318
0,0,0.315,NA,NA,0.004,0.318
0.009,0,0.313,0.094,0.075,0.004,0.318
0.008,0.004,0.327,0.064,0.053,0.004,0.318
0.011,0.005,0.321,0.045,0.03,0.005,0.318
-0.004,0.005,0.325,0.041,0.045,0.004,0.318
0,0,0.337,NA,NA,0.004,0.318
0,0,0.349,NA,NA,0.004,0.318
0,0.007,0.327,0.048,0.048,0.004,0.318
0,0,0.297,-0.033,-0.037,0.004,0.318
0.009,0,0.321,0.094,0.075,0.004,0.318
0.009,0.001,0.343,0.091,0.074,0.004,0.318
0,0,0.329,NA,NA,0.004,0.318
0,0,0.305,NA,NA,0.004,0.318
0.012,0.001,0.313,0.047,0.027,0.004,0.318
0,0,0.331,NA,NA,0.004,0.318
0.01,0.001,0.309,0.045,0.027,0.004,0.318
0,0,0.311,NA,NA,0.004,0.318
0,0.001,0.329,-0.032,-0.037,0.004,0.318
0,0,0.323,NA,NA,0.004,0.318
0.008,0.004,0.303,0.103,0.092,0.004,0.318
-0.004,0.004,0.307,0.038,0.043,0.004,0.318
0,0.004,0.345,0.053,0.057,0.004,0.318
0.01,0.001,0.327,0.048,0.028,0.004,0.318
0,0.003,0.331,0.056,0.059,0.004,0.318
0,0.004,0.343,0.052,0.056,0.004,0.318
0.009,0.011,0.317,0.059,0.05,0.004,0.318
0,0.008,0.337,0.019,0.018,0.004,0.318
0.008,0,0.311,0.089,0.075,0.004,0.318
0,0,0.315,NA,NA,0.004,0.318
0.01,0,0.297,0.097,0.076,0.004,0.318
0,0.004,0.301,0.017,0.016,0.004,0.318
0,0.003,0.315,0.053,0.056,0.004,0.318
0.014,0,0.343,0.099,0.077,0.004,0.318
0,0,0.287,NA,NA,0.004,0.318
0.009,0.004,0.309,0.104,0.093,0.004,0.318
0.009,0.004,0.325,0.102,0.092,0.004,0.318
0.01,0.004,0.335,0.068,0.055,0.004,0.318
0,0.003,0.285,0.012,0.012,0.004,0.318
0.008,0.008,0.321,0.088,0.078,0.004,0.318
0.017,0.004,0.325,0.14,0.12,0.004,0.318
0.008,0.004,0.299,0.109,0.095,0.004,0.318
0,0,0.317,NA,NA,0.004,0.318
0.009,0.007,0.323,0.117,0.11,0.004,0.318
0,0,0.333,NA,NA,0.004,0.318
0,0,0.311,NA,NA,0.004,0.318
0,0.003,0.333,0.056,0.059,0.004,0.318
0.009,0,0.311,0.098,0.076,0.004,0.318
0,0.007,0.315,0.037,0.039,0.004,0.318
0.011,0,0.315,0.095,0.076,0.004,0.318
0.006,-0.001,0.335,0.023,0.01,0.004,0.318
0,0.003,0.317,0.049,0.054,0.004,0.318
0.009,0.004,0.311,0.102,0.092,0.004,0.318
0,0,0.307,NA,NA,0.004,0.318
0,0,0.329,NA,NA,0.004,0.318
0.018,0.001,0.323,0.133,0.107,0.004,0.318
0.009,0.004,0.341,0.066,0.054,0.004,0.318
0.009,0.004,0.329,0.107,0.095,0.004,0.318
0,0.003,0.311,0.06,0.062,0.004,0.318
0.008,0,0.321,0.095,0.075,0.004,0.318
0,0,0.343,NA,NA,0.004,0.318
0.01,0,0.315,0.099,0.076,0.004,0.318
0,0.007,0.347,0.076,0.082,0.004,0.318
-0.005,0.008,0.299,0.026,0.027,0.004,0.318
0,0,0.325,NA,NA,0.004,0.318
0.011,0,0.319,0.094,0.075,0.004,0.318
0.011,0.004,0.327,0.108,0.095,0.004,0.318
0,0,0.335,NA,NA,0.004,0.318
0.011,0,0.319,0.099,0.077,0.004,0.318
-0.004,-0.002,0.317,-0.015,-0.013,0.004,0.318
0,0,0.301,-0.032,-0.037,0.004,0.318
0,0,0.309,NA,NA,0.004,0.318
0.017,0.005,0.325,0.101,0.083,0.004,0.318
0,0.001,0.315,-0.048,-0.054,0.004,0.318
0,0.003,0.315,0.051,0.055,0.004,0.318
0.009,0.004,0.325,0.101,0.092,0.004,0.318
0,0,0.315,NA,NA,0.004,0.318
0,0,0.301,NA,NA,0.004,0.318
0.01,0,0.323,0.096,0.076,0.004,0.318
0,0,0.319,NA,NA,0.004,0.318
0,0.01,0.283,0.031,0.03,0.004,0.318
0.008,0.004,0.311,0.061,0.051,0.004,0.318
0.01,0.004,0.327,0.104,0.093,0.004,0.318
0.01,0.004,0.343,0.108,0.095,0.004,0.318
0.009,0.004,0.331,0.107,0.094,0.004,0.318
0,0,0.285,NA,NA,0.004,0.318
0.008,0,0.311,0.095,0.075,0.004,0.318
0,0,0.295,NA,NA,0.004,0.318
0.018,0.004,0.333,0.139,0.12,0.004,0.318
0,0.004,0.327,0.014,0.013,0.004,0.318
0.005,0.008,0.303,0.099,0.095,0.004,0.318
0.01,0,0.313,0.097,0.077,0.005,0.318
0.009,0,0.327,0.094,0.075,0.005,0.318
0,0.003,0.311,0.052,0.056,0.005,0.318
0.005,0.002,0.323,0.037,0.029,0.005,0.318
0.01,0.004,0.331,0.065,0.053,0.005,0.318
0,0,0.303,NA,NA,0.005,0.318
0,0.001,0.305,-0.047,-0.053,0.004,0.318
0,0,0.323,NA,NA,0.004,0.318
0,0,0.313,NA,NA,0.004,0.318
0.009,0.008,0.341,0.089,0.078,0.004,0.318
0,0,0.337,NA,NA,0.004,0.318
0.009,0,0.329,0.094,0.076,0.004,0.318
0.008,0.004,0.293,0.068,0.056,0.004,0.318
0,0,0.325,NA,NA,0.004,0.318
0,0,0.305,NA,NA,0.004,0.318
0.011,0.004,0.311,0.111,0.096,0.004,0.318
0,0.003,0.309,0.055,0.058,0.004,0.318
0,0.003,0.307,0.051,0.055,0.004,0.318
0.009,0.004,0.319,0.062,0.051,0.004,0.318
0.009,0,0.321,0.095,0.076,0.004,0.318
0,0,0.331,NA,NA,0.004,0.318
0,0,0.291,NA,NA,0.004,0.318
0.009,0,0.321,0.091,0.075,0.004,0.318
-0.004,0.008,0.355,0.001,-0.002,0.004,0.318
0.009,0,0.305,0.095,0.076,0.004,0.318
0,0.004,0.371,0.052,0.057,0.004,0.318
0,0,0.343,NA,NA,0.004,0.318
0,0,0.297,NA,NA,0.004,0.318
0.01,0,0.309,0.097,0.076,0.004,0.318
0.01,0.004,0.335,0.108,0.095,0.004,0.318
0.009,0,0.289,0.093,0.075,0.004,0.318
0,0,0.351,NA,NA,0.004,0.318
0.007,0,0.299,0.089,0.073,0.004,0.318
0.01,0.001,0.317,0.047,0.028,0.004,0.318
0,0.007,0.303,0.041,0.043,0.004,0.318
0,0.008,0.321,0.027,0.025,0.004,0.318
0.008,0.004,0.331,0.11,0.096,0.004,0.318
0,0,0.307,NA,NA,0.004,0.318
0,0.003,0.303,0.054,0.057,0.004,0.318
0,0,0.311,NA,NA,0.004,0.318
0.009,0.007,0.313,0.114,0.108,0.004,0.318
0,0,0.283,NA,NA,0.004,0.318
0.017,0.004,0.317,0.143,0.121,0.004,0.318
0,0,0.297,NA,NA,0.004,0.318
0,0,0.309,NA,NA,0.004,0.318
0,0.004,0.343,0.054,0.058,0.004,0.318
0,0,0.321,NA,NA,0.004,0.318
0.021,0.001,0.349,0.138,0.108,0.004,0.318
0.01,0.004,0.333,0.107,0.095,0.004,0.318
0,0,0.341,NA,NA,0.004,0.318
0,0,0.307,NA,NA,0.004,0.318
-0.004,-0.001,0.317,-0.049,-0.053,0.004,0.318
0,0,0.309,NA,NA,0.004,0.318
0.012,0.008,0.353,0.12,0.111,0.004,0.318
0,0,0.333,NA,NA,0.004,0.318
0.008,0,0.313,0.092,0.075,0.004,0.318
0,0.003,0.315,0.053,0.056,0.004,0.318
0,0,0.305,NA,NA,0.004,0.318
0,0,0.341,NA,NA,0.004,0.318
0.01,0.007,0.313,0.118,0.11,0.004,0.318
0.015,0.004,0.293,0.134,0.116,0.004,0.318
0.009,0,0.325,0.098,0.076,0.004,0.318
0.011,0,0.323,0.101,0.077,0.004,0.318
0,0.003,0.287,0.051,0.055,0.004,0.318
0,0.004,0.343,0.054,0.057,0.004,0.318
0,0.004,0.329,0.014,0.013,0.004,0.318
0,0.003,0.315,0.053,0.056,0.004,0.318
0.012,0.001,0.353,0.102,0.077,0.004,0.318
0.008,0.001,0.289,0.042,0.027,0.004,0.318
0,0.003,0.275,0.054,0.056,0.004,0.318
0,0.004,0.357,0.014,0.013,0.004,0.318
0,0,0.333,NA,NA,0.004,0.318
0,0.007,0.331,0.065,0.073,0.004,0.318
0,0,0.339,NA,NA,0.004,0.318
0,0.007,0.343,0.082,0.086,0.004,0.318
0,0,0.317,NA,NA,0.004,0.318
0,0,0.351,NA,NA,0.004,0.318
0.012,0.004,0.333,0.107,0.094,0.004,0.318
0,0,0.309,-0.031,-0.036,0.004,0.318
0,0,0.323,NA,NA,0.004,0.318
0.012,0,0.335,0.098,0.076,0.004,0.318
0,0.003,0.303,0.053,0.056,0.004,0.318
0.009,0,0.329,0.094,0.075,0.004,0.318
-0.004,0.005,0.327,0.005,0.005,0.004,0.318
0.008,0,0.293,0.09,0.074,0.004,0.318
0,0.003,0.325,0.049,0.054,0.004,0.318
0.01,0.007,0.313,0.119,0.11,0.004,0.318
0.01,0,0.327,0.094,0.075,0.004,0.318
0,0,0.309,NA,NA,0.004,0.318
0.008,0,0.301,0.09,0.074,0.004,0.318
0,0.004,0.349,0.052,0.056,0.004,0.318
0.01,0.004,0.303,0.109,0.095,0.004,0.318
0,0,0.313,NA,NA,0.004,0.318
0,0.004,0.333,0.013,0.012,0.004,0.318
0.008,0.001,0.303,0.016,0.001,0.004,0.318
0,0,0.311,NA,NA,0.004,0.318
0.01,0,0.295,0.095,0.076,0.004,0.318
0.012,0,0.321,0.103,0.078,0.004,0.318
0,0.01,0.295,0.066,0.068,0.004,0.318
0,0.003,0.289,0.05,0.053,0.004,0.318
0,0,0.323,NA,NA,0.004,0.318
0,0.004,0.347,0.049,0.054,0.004,0.318
0,0.003,0.301,0.053,0.057,0.004,0.318
0,0,0.339,NA,NA,0.004,0.318
0,0.004,0.343,0.017,0.016,0.004,0.318
0.006,-0.001,0.317,0.019,0.007,0.004,0.318
0,0,0.305,NA,NA,0.004,0.318
0,0,0.323,NA,NA,0.004,0.318
0.009,0,0.311,0.094,0.076,0.004,0.318
0,0.003,0.337,0.054,0.057,0.004,0.318
0.009,0,0.299,0.096,0.076,0.004,0.318
0.01,0.008,0.339,0.123,0.113,0.004,0.318
0,0,0.303,NA,NA,0.004,0.318
0.01,0.001,0.353,0.045,0.025,0.004,0.318
0.008,0.004,0.313,0.102,0.092,0.004,0.318
0,0.004,0.341,0.054,0.058,0.004,0.318
0,0.007,0.315,0.02,0.019,0.004,0.318
0,0,0.339,NA,NA,0.004,0.318
0,0,0.335,NA,NA,0.004,0.318
0.013,0.004,0.341,0.112,0.097,0.004,0.318
0.013,0.001,0.327,0.102,0.077,0.004,0.318
0.008,0.006,0.285,0.115,0.108,0.004,0.318
0.009,0,0.321,0.093,0.075,0.004,0.318
0,0,0.273,NA,NA,0.004,0.318
0,0,0.361,NA,NA,0.004,0.318
0,0.003,0.299,0.01,0.01,0.004,0.318
0,0.003,0.319,0.052,0.056,0.004,0.318
0.009,0.004,0.309,0.069,0.056,0.004,0.318
0.008,0.008,0.345,0.104,0.102,0.004,0.318
0.009,0,0.281,0.096,0.076,0.004,0.318
0,0,0.327,NA,NA,0.004,0.318
0,0,0.351,NA,NA,0.004,0.318
0,0.003,0.333,0.053,0.056,0.004,0.318
0.02,0.001,0.329,0.137,0.107,0.004,0.318
0.008,0,0.329,0.092,0.074,0.004,0.318
0,0,0.321,NA,NA,0.004,0.318
0,0.003,0.289,0.047,0.051,0.004,0.318
0,0,0.311,NA,NA,0.004,0.318
0.008,0.004,0.297,0.099,0.09,0.004,0.318
0,0.003,0.285,0.052,0.055,0.004,0.318
0.008,0,0.319,0.096,0.076,0.004,0.318
0.01,0.004,0.319,0.105,0.093,0.004,0.318
0.011,0,0.313,0.1,0.077,0.004,0.318
0,0,0.333,NA,NA,0.004,0.318
0.011,0.007,0.327,0.115,0.108,0.004,0.318
0.009,0,0.303,0.093,0.075,0.004,0.318
0.012,0.001,0.299,0.022,0.002,0.004,0.318
0.009,0,0.325,0.097,0.076,0.004,0.318
0.009,0,0.323,0.092,0.075,0.004,0.318
0,0.003,0.323,0.055,0.058,0.004,0.318
