0.5,1,1.5,2
417,376,205,76
406,366,221,81
412,386,209,67
425,365,207,77
429,363,202,80
416,373,211,74
420,379,200,75
422,369,209,74
418,364,216,76
420,358,223,73
427,366,207,74
424,374,212,64
426,368,208,72
430,367,196,81
416,365,214,79
420,379,202,73
418,379,202,75
413,372,213,76
401,368,230,75
431,361,213,69
418,367,209,80
430,372,204,68
420,366,217,71
411,373,214,76
409,366,224,75
416,356,217,85
425,372,202,75
420,381,200,73
430,369,204,71
424,367,204,79
415,389,201,69
412,380,204,78
434,367,198,75
430,360,215,69
432,361,209,72
421,381,203,69
423,362,217,72
414,366,214,80
421,373,200,80
426,367,207,74
428,372,196,78
413,369,208,84
423,382,189,80
404,385,208,77
424,376,198,76
426,359,214,75
417,375,208,74
401,387,209,77
402,383,211,78
425,356,214,79
422,374,200,78
402,392,207,73
428,364,204,78
428,358,211,77
418,371,210,75
421,381,196,76
404,388,210,72
404,376,218,76
425,371,207,71
423,377,210,64
419,364,213,78
417,377,201,79
405,372,218,79
412,375,213,74
419,375,207,73
421,368,205,80
426,374,196,78
421,369,209,75
414,364,217,79
424,371,202,77
425,379,202,68
424,376,202,72
399,376,221,78
418,375,202,79
421,364,214,75
411,372,205,86
413,376,207,78
421,366,214,73
415,372,203,84
422,372,204,76
414,376,213,71
413,373,212,76
416,387,199,72
415,374,209,76
418,384,196,76
404,372,221,77
416,377,203,78
416,386,198,74
420,382,202,70
438,369,194,73
423,376,200,75
425,371,204,74
435,366,201,72
414,373,211,76
432,370,209,63
444,355,202,73
413,373,214,74
424,370,207,73
416,376,207,75
404,384,209,77
423,365,205,81
428,368,200,78
423,372,204,75
425,368,210,71
424,359,213,78
423,377,199,75
428,362,212,72
424,360,209,81
409,370,220,75
413,378,212,71
415,379,207,73
429,354,218,73
433,356,203,82
419,388,207,60
423,372,213,66
422,368,206,78
414,366,215,79
406,384,201,83
424,358,210,82
411,386,200,77
418,382,206,68
436,363,213,62
416,369,209,80
421,367,203,83
419,370,209,76
423,381,192,78
404,387,214,69
418,387,197,72
412,390,203,69
421,371,207,75
401,374,218,81
408,378,212,76
438,364,202,70
422,364,212,76
403,384,214,73
424,376,198,76
409,374,210,81
408,386,202,78
419,383,202,70
415,375,215,69
423,368,211,72
434,358,209,73
416,372,216,70
413,387,201,73
416,381,203,74
421,368,209,76
419,376,204,75
417,366,215,76
417,373,209,75
418,381,204,71
420,368,214,72
412,373,217,72
422,361,212,79
417,359,218,80
432,369,203,70
413,366,215,80
422,367,208,77
422,378,197,77
424,370,206,74
407,370,218,79
419,381,202,72
422,375,206,71
439,359,203,73
426,373,200,75
424,365,211,74
418,369,210,77
434,376,193,71
417,379,200,78
428,371,195,80
409,382,207,76
416,378,211,69
408,371,218,77
439,365,195,75
419,370,202,83
433,366,199,76
419,368,211,76
398,389,211,76
411,384,209,70
413,369,213,79
413,382,207,72
410,377,210,77
409,371,218,76
413,373,213,75
428,364,207,75
425,376,201,72
424,359,214,77
417,378,208,71
416,375,214,69
418,379,203,74
418,387,199,70
423,365,211,75
417,377,206,74
418,382,210,64
418,375,202,79
421,372,210,71
423,375,203,73
427,368,215,64
427,360,210,77
427,365,211,71
411,371,212,80
417,374,204,79
429,370,206,69
425,371,199,79
415,372,209,78
435,360,203,76
423,371,202,78
405,377,214,78
423,368,211,72
429,363,202,80
421,355,217,81
431,370,197,76
433,355,210,76
417,369,207,81
406,372,219,77
427,363,214,70
430,364,204,76
424,360,212,78
415,370,213,76
425,351,217,81
417,371,210,76
425,364,211,74
423,370,209,72
424,374,205,71
409,379,208,78
438,358,207,71
424,357,205,88
438,366,201,69
417,380,202,75
420,370,207,77
412,382,206,74
417,375,209,73
410,370,216,78
413,374,207,80
427,369,200,78
419,363,214,78
410,377,213,74
417,380,198,79
420,375,202,77
431,373,204,66
408,384,213,69
436,355,206,77
411,382,211,70
409,383,211,71
422,370,205,77
423,377,202,72
420,368,213,73
411,378,213,72
430,372,203,69
414,370,211,79
422,363,208,81
427,387,190,70
415,363,214,82
424,368,201,81
417,375,209,73
424,376,207,67
426,368,203,77
428,353,218,75
422,354,211,87
420,360,219,75
414,390,201,69
430,372,204,68
415,360,224,75
418,377,205,74
418,376,202,78
433,352,205,84
425,374,205,70
404,382,217,71
418,361,220,75
421,370,210,73
414,380,210,70
428,383,189,74
417,374,208,75
413,374,210,77
421,370,206,77
419,379,208,68
425,370,204,75
427,363,209,75
410,378,201,85
417,370,207,80
430,367,203,74
403,386,213,72
417,386,198,73
426,358,215,75
415,369,218,72
429,377,191,77
412,370,212,80
417,373,211,73
420,382,199,73
426,376,197,75
405,380,215,74
430,364,203,77
436,361,201,76
419,374,202,79
403,373,215,83
430,374,200,70
418,361,219,76
433,368,203,70
437,355,200,82
422,367,206,79
419,373,200,82
434,363,202,75
426,364,206,78
412,374,211,77
420,381,199,74
404,380,216,74
423,364,215,72
427,356,208,83
435,367,198,74
418,377,202,77
445,367,191,71
417,371,203,83
419,362,213,80
420,376,204,74
410,369,213,82
426,364,210,74
392,392,214,76
417,382,208,67
411,382,208,73
411,391,198,74
412,373,214,75
412,376,207,79
423,363,207,81
404,379,209,82
429,354,214,77
421,370,203,80
428,368,201,77
434,364,201,75
410,369,219,76
411,369,211,83
422,370,213,69
416,379,200,79
420,376,199,79
413,376,208,77
412,374,218,70
425,361,215,73
420,379,203,72
415,382,205,72
419,370,207,78
433,367,200,74
425,387,195,67
423,371,202,78
418,367,210,79
420,377,205,72
409,382,208,75
419,371,210,74
411,377,210,76
417,380,201,76
415,370,213,76
433,360,200,81
407,387,202,78
420,366,209,79
427,375,201,71
427,353,215,79
424,368,208,74
419,368,209,78
423,367,204,80
410,371,220,73
419,362,215,78
420,372,207,75
443,361,200,70
412,377,203,82
406,368,229,71
410,366,214,84
418,373,206,77
426,368,207,73
430,371,200,73
417,383,207,67
443,363,189,79
430,370,199,75
417,374,202,81
415,379,209,71
403,391,208,72
418,366,207,83
410,376,214,74
422,368,214,70
418,382,203,71
433,367,194,80
415,383,200,76
418,380,205,71
416,356,223,79
414,367,209,84
419,374,209,72
412,376,211,75
434,372,196,72
422,357,227,68
416,368,214,76
410,379,209,76
417,363,215,79
416,363,217,78
422,376,206,70
405,390,203,76
428,364,206,76
414,375,205,80
410,373,211,80
408,373,215,78
418,373,211,72
421,372,207,74
417,374,205,78
409,386,200,79
415,359,226,74
421,369,200,84
424,367,203,80
430,363,202,79
429,356,212,77
407,366,215,86
420,373,206,75
422,368,211,73
415,368,217,74
415,372,208,79
419,367,209,79
430,363,199,82
429,364,205,76
423,374,205,72
411,381,208,74
432,373,202,67
415,378,214,67
430,367,203,74
419,368,212,75
425,363,210,76
428,353,215,78
422,374,198,80
425,367,203,79
393,384,220,77
433,368,201,72
407,379,214,74
425,372,198,79
415,368,213,78
406,383,206,79
430,383,191,70
416,364,211,83
429,369,208,68
423,369,208,74
437,365,197,75
414,371,211,78
426,365,211,72
419,358,213,84
437,353,203,81
415,365,210,84
418,372,207,77
421,365,210,78
428,361,209,76
421,382,198,73
414,375,207,78
428,364,212,70
402,387,213,72
417,375,209,73
435,357,200,82
407,386,203,78
417,372,216,69
423,370,206,75
415,377,212,70
424,376,200,74
408,378,215,73
423,379,199,73
418,383,197,76
429,371,203,71
406,390,205,73
408,376,215,75
416,375,210,73
430,378,192,74
417,386,200,71
417,366,207,84
422,371,207,74
418,363,225,68
416,367,210,81
422,375,204,73
434,362,207,71
416,367,211,80
427,384,200,63
420,380,204,70
422,366,205,81
427,376,199,72
408,375,212,79
421,356,215,82
408,367,220,79
422,381,201,70
425,373,197,79
433,352,206,83
411,375,208,80
411,386,205,72
422,371,202,79
428,359,213,74
420,368,207,79
422,380,203,69
409,381,205,79
417,370,213,74
421,367,213,73
422,371,208,73
407,387,200,80
441,341,217,75
416,365,212,81
425,371,202,76
413,379,209,73
419,371,206,78
425,374,206,69
417,362,208,87
414,374,208,78
418,379,202,75
405,378,220,71
417,372,211,74
426,374,199,75
425,370,205,74
423,372,205,74
428,367,211,68
409,372,212,81
425,372,200,77
411,373,217,73
425,364,205,80
413,383,201,77
414,373,211,76
417,373,209,75
423,368,210,73
412,364,218,80
413,373,214,74
418,370,212,74
420,368,208,78
413,377,213,71
420,363,216,75
414,384,200,76
419,375,202,78
413,379,208,74
432,373,193,76
434,369,194,77
424,364,201,85
423,357,208,86
428,368,202,76
423,384,195,72
425,378,198,73
417,380,204,73
423,363,211,77
407,381,215,71
416,374,210,74
420,369,211,74
433,364,201,76
420,380,201,73
409,381,207,77
435,367,205,67
412,377,210,75
410,379,213,72
419,369,210,76
430,367,205,72
413,374,207,80
431,368,200,75
412,386,193,83
419,378,206,71
434,373,192,75
422,370,214,68
423,358,213,80
420,363,217,74
423,368,208,75
423,368,207,76
418,364,215,77
419,376,208,71
427,377,198,72
415,377,211,71
413,377,203,81
421,363,214,76
419,382,206,67
425,364,216,69
418,369,210,77
421,369,210,74
419,376,211,68
421,362,212,79
415,382,206,71
435,358,219,62
416,374,209,75
418,381,204,71
405,376,211,82
423,371,206,74
428,370,207,69
413,379,215,67
403,376,217,78
415,378,209,72
428,361,210,75
417,386,193,78
419,360,222,73
439,353,208,74
409,377,210,78
400,375,216,83
435,355,211,73
436,372,197,69
413,377,213,71
425,374,208,67
403,369,225,77
430,372,195,77
410,360,224,80
426,355,212,81
418,382,200,74
406,384,209,75
414,369,209,82
432,355,220,67
423,381,201,69
406,388,210,70
422,366,209,77
419,360,215,80
433,360,206,75
418,380,199,77
423,371,202,78
405,370,222,77
410,386,201,77
396,393,206,79
417,380,202,75
407,382,213,72
398,379,221,76
401,390,194,89
409,377,206,82
433,363,204,74
420,373,210,71
419,374,214,67
415,371,206,82
421,370,204,79
408,368,224,74
414,377,206,77
427,363,207,77
421,368,211,74
411,377,217,69
407,382,210,75
413,393,195,73
427,364,207,76
406,380,212,76
422,380,193,79
417,369,204,84
422,375,200,77
410,368,223,73
410,378,210,76
410,381,208,75
425,373,206,70
418,368,211,77
401,379,215,79
416,384,201,73
430,361,207,76
428,376,197,73
417,368,211,78
411,378,215,70
431,369,195,79
414,376,210,74
415,365,212,82
409,382,205,78
412,367,215,80
427,359,213,75
413,372,205,84
411,372,211,80
418,371,207,78
407,369,223,75
426,375,200,73
417,376,202,79
413,382,202,77
419,365,214,76
421,378,212,63
409,376,209,80
417,367,211,79
414,366,209,85
424,362,209,79
431,368,201,74
411,383,211,69
413,371,211,79
426,376,208,64
419,376,207,72
415,373,207,79
426,356,211,81
403,382,218,71
420,365,213,76
427,367,202,78
424,367,208,75
422,366,208,78
416,370,218,70
412,369,217,76
424,365,207,78
413,375,201,85
409,389,197,79
417,371,213,73
425,362,214,73
420,364,213,77
434,359,203,78
416,367,214,77
424,374,206,70
417,370,217,70
412,376,203,83
426,372,205,71
414,380,202,78
406,368,223,77
426,373,198,77
416,377,210,71
411,385,201,77
415,375,214,70
440,365,191,78
416,362,223,73
403,371,221,79
411,367,219,77
420,370,216,68
432,366,200,76
413,375,208,78
425,359,211,79
420,373,206,75
396,392,209,77
419,363,205,87
430,371,199,74
428,368,209,69
412,370,215,77
414,375,209,76
420,375,209,70
428,367,215,64
415,368,216,75
417,382,196,79
425,370,199,80
406,381,212,75
434,355,216,69
435,367,198,74
417,389,192,76
422,368,215,69
405,387,202,80
420,376,208,70
408,373,212,81
404,382,211,77
421,382,200,71
426,378,195,75
417,372,215,70
417,372,207,78
427,354,214,79
413,364,221,76
436,354,202,82
419,365,212,78
427,374,189,84
431,378,195,70
425,366,207,76
423,385,189,77
426,356,217,75
411,371,214,78
415,378,205,76
427,368,212,67
411,391,199,73
412,377,203,82
413,377,210,74
436,344,216,78
415,374,210,75
424,375,214,61
423,378,191,82
432,385,193,64
410,379,206,79
419,372,209,74
423,376,205,70
415,378,207,74
403,379,215,77
412,380,204,78
422,378,200,74
411,379,207,77
415,377,206,76
426,360,211,77
426,366,211,71
399,384,214,77
422,368,206,78
405,375,218,76
427,375,207,65
413,378,207,76
414,375,210,75
430,370,198,76
413,379,207,75
417,365,217,75
418,366,215,75
428,366,206,74
419,364,210,81
422,364,215,73
403,380,212,79
410,381,207,76
419,379,204,72
411,368,208,87
415,375,212,72
403,386,214,71
425,352,220,77
423,364,214,73
425,362,216,71
437,364,199,74
419,366,225,64
418,366,215,75
407,376,214,77
428,364,206,76
414,374,208,78
418,378,209,69
419,381,202,72
432,358,215,69
419,369,212,74
417,376,208,73
435,356,208,75
426,373,203,72
427,373,202,72
412,376,219,67
398,382,214,80
426,372,217,59
434,375,199,66
423,366,211,74
431,366,204,73
412,364,219,79
410,376,211,77
405,383,207,79
432,367,200,75
414,372,204,84
444,348,213,69
415,376,205,78
429,367,204,74
416,372,210,76
414,364,216,80
413,368,217,76
440,368,193,73
427,356,220,71
428,373,199,74
432,364,202,76
429,361,216,68
419,377,204,74
426,358,222,68
411,376,206,81
416,366,213,79
427,367,211,69
429,362,204,79
415,385,200,74
435,367,193,79
419,372,207,76
419,368,216,71
422,375,211,66
412,377,212,73
402,366,225,81
417,377,208,72
418,377,205,74
407,375,216,76
422,379,198,75
419,365,218,72
418,369,214,73
414,380,204,76
414,375,204,81
424,370,206,74
419,357,227,71
414,376,210,74
417,390,200,67
422,373,204,75
411,374,215,74
427,367,200,80
409,385,207,73
416,370,213,75
405,380,206,83
433,363,197,81
407,378,206,83
428,369,200,77
422,370,200,82
424,368,208,74
407,378,217,72
417,385,196,76
429,372,193,80
421,369,209,75
439,362,197,76
412,382,210,70
423,369,206,76
418,371,211,74
411,369,208,86
428,350,222,74
409,374,213,78
429,373,198,74
417,361,217,79
412,356,227,79
415,365,225,69
412,374,212,76
408,375,210,81
419,375,199,81
414,370,213,77
412,373,210,79
409,374,220,71
402,377,214,81
413,378,208,75
434,370,202,68
430,363,212,69
415,378,195,86
412,373,209,80
444,354,198,78
423,366,214,71
430,364,203,77
428,357,206,83
411,379,214,70
428,368,207,71
423,364,206,81
414,379,203,78
416,370,203,85
420,370,209,75
419,371,206,78
411,387,207,69
414,369,207,84
419,366,213,76
421,368,210,75
420,383,194,77
419,372,212,71
412,380,211,71
412,381,201,80
439,349,218,68
413,384,203,74
408,374,214,78
416,375,207,76
422,377,202,73
425,359,213,77
415,369,214,76
430,366,199,79
424,359,211,80
431,365,206,72
418,374,204,78
411,385,198,80
417,377,202,78
418,371,207,78
415,365,218,76
412,370,212,80
416,372,214,72
414,368,213,79
419,377,201,77
438,365,193,78
421,362,217,74
412,388,209,65
430,376,198,70
414,378,206,76
410,374,213,77
414,376,206,78
424,370,202,78
411,379,212,72
414,381,202,77
418,376,206,74
424,351,219,80
434,358,200,82
422,371,205,76
414,372,209,79
415,361,219,79
417,381,206,70
421,376,208,69
414,370,214,76
422,374,202,76
422,389,191,72
424,376,197,77
404,377,213,80
407,374,211,82
415,365,216,78
427,370,207,70
424,364,209,77
431,368,200,75
415,364,216,79
412,376,202,84
405,380,210,79
422,361,214,77
417,384,205,68
424,371,213,66
414,370,213,77
417,377,208,72
425,367,204,78
419,368,209,78
421,371,203,79
418,363,214,79
413,377,210,74
427,370,201,76
419,365,212,78
428,371,201,74
410,385,201,78
425,358,216,75
411,380,209,74
421,375,208,70
404,373,219,78
413,388,195,78
404,381,212,77
418,372,214,70
422,375,195,82
407,381,216,70
437,359,202,76
431,354,207,82
421,376,205,72
412,381,202,79
430,362,211,71
412,371,214,77
399,381,217,77
409,380,212,73
421,356,218,79
418,386,196,74
423,368,209,74
410,374,207,83
416,376,208,74
429,375,198,72
419,374,208,73
401,375,221,77
415,380,217,62
416,392,196,70
428,373,202,71
421,364,218,71
429,372,196,77
415,376,209,74
426,358,211,79
434,373,192,75
426,374,208,66
416,371,207,80
421,366,207,80
414,383,202,75
425,364,213,72
433,363,203,75
411,389,196,78
415,379,210,70
439,370,191,74
439,362,198,75
410,377,200,87
417,361,215,81
398,379,217,80
426,356,216,76
